"nameFood","category","priceFood","amountFood","imageUrlFood"
"Fried Chicken","1","230",NULL,"img/food6.jpg"
"Chessy chicken","1","280",NULL,"img/food26.jpg"
"Chicken bowl","1","350",NULL,"img/food30.jpg"
"Brown beef","10","600",NULL,"img/food27.jpg"
"Beef steak","10","650",NULL,"img/food28.jpg"
"Italic pasta","3","180",NULL,"img/food11.jpg"
"Bake pasta","3","250",NULL,"img/food25.jpg"
"Chicken Noodles","4","150",NULL,"img/food9.jpg"
"Ramen Noodles","4","120",NULL,"img/food10.jpg"
"Food salad","9","230",NULL,"img/food22.jpg"
"vegetable salad","9","180",NULL,"img/food23.jpg"
"chicken Salad","9","300",NULL,"img/food24.jpg"
"Thai soup","6","220",NULL,"img/food12.jpg"
"Vegetable soup","6","280",NULL,"img/food13.jpg"
"Vegetable pizza","5","430",NULL,"img/food20.jpg"
"Chicken pizza","5","550",NULL,"img/food21.jpg"
"Dessert Plate","7","450",NULL,"img/food14.jpg"
"Waffle ","7","330",NULL,"img/food15.jpg"
"Boston burger","2","250",NULL,"img/food1.jpg"
"Beef burger","2","280",NULL,"img/food4.jpg"
"Spicy juice burger","2","280",NULL,"img/food3.jpg"
"cheesy burger","2","220",NULL,"img/food2.jpg"
"Fresh juice","8","250",NULL,"img/food17.jpg"
"Strawberry juice","8","280",NULL,"img/food18.jpg"
